-40 -32 -16 -48 -48 -48 712
-40 16 -40 -56 -16 -40 736
-16 -56 904
-48 936
-24 -40 -24 -32 -32 800
-8 976
-32 16 -48 -64 800
-8 -56 -32 872
992
-8 -32 -24 56 -56 776
-48 -40 888
-16 968
-16 -24 936
-56 -64 -56 -8 8 -40 -16 -64 -32 576
-48 -48 24 -64 -48 720
-32 -64 880
-8 -40 -8 912
-24 24 -24 896
-32 -40 -64 -8 816
-56 48 -48 -40 768
-24 -32 -64 -40 -8 -24 -48 -64 624
48 -24 -16 -32 -8 -48 768
-64 -48 864
-56 -32 -32 -64 776
992
-48 936
992
-64 -40 -48 -40 768
-24 960
-24 -48 -24 32 -40 784
